example.R
…
dat0 <- read_csv("pmFRM.csv.gz")

## Rows: 1217 Columns: 2
## ── Column specification ────────────────────────────────────────────────────────
## Delimiter: ","
## dbl  (1): pmFRM
## date (1): date
## 
## ℹ Use `spec()` to retrieve the full column specification for this data.
## ℹ Specify the column types or set `show_col_types = FALSE` to quiet this message.

dat0

## # A tibble: 1,217 × 2
##    date       pmFRM
##    <date>     <dbl>
##  1 2017-01-25  5.91
##  2 2017-02-08  7.93
##  3 2017-02-12  3.91
##  4 2017-02-13  3.93
##  5 2017-02-15  5.75
##  6 2017-02-19  3.75
##  7 2017-03-04  6.22
##  8 2017-03-15 11.3 
##  9 2017-03-21  8.61
## 10 2017-03-23  6.91
## # ℹ 1,207 more rows
…
## 
## ── Recipe ──────────────────────────────────────────────────────────────────────
## 
## ── Inputs 
## Number of variables by role
## outcome:   1
## predictor: 2

## Look at what new features look like
rec |>
    prep(dat) |>
    bake(new_data = NULL)

## # A tibble: 912 × 3
##    month  year pmFRM
##    <dbl> <dbl> <dbl>
##  1     6  2018  5.22
##  2     9  2019  9.02
##  3     2  2019  7.70
##  4     1  2018 10.6 
##  5    11  2021 10.5 
##  6     8  2019  3.75
##  7     1  2019  5.75
##  8     9  2021  7.63
##  9    11  2017  9.32
## 10    11  2019 10.8 
## # ℹ 902 more rows
…
## Fit random forest model to the entire training data
model_fit <- wf |>
    fit(data = dat)

## Preparing trainig
dat_prep <- rec |>
    prep(dat) |>
    bake(new_data = NULL)

## Get predicted values on the training data
model_fit |>
    extract_fit_parsnip() |>
    augment(dat_prep)

## # A tibble: 912 × 4
##    .pred month  year pmFRM
##    <dbl> <dbl> <dbl> <dbl>
##  1  8.87     6  2018  5.22
##  2  8.47     9  2019  9.02
##  3  6.63     2  2019  7.70
##  4  7.65     1  2018 10.6 
##  5 10.0     11  2021 10.5 
##  6  8.15     8  2019  3.75
##  7  7.19     1  2019  5.75
##  8  9.28     9  2021  7.63
##  9  8.51    11  2017  9.32
## 10  8.53    11  2019 10.8 
## # ℹ 902 more rows
…
testing <- testing(dat_split) |> 
  mutate(month = month(date),
         year = year(date))

test_prep <- rec |>
    prep(dat) |>
    bake(new_data = testing)
test_prep

## # A tibble: 305 × 3
##    month  year pmFRM
##    <dbl> <dbl> <dbl>
##  1     3  2017  6.22
##  2     3  2017 11.3 
##  3     3  2017  8.61
##  4     3  2017  9.72
##  5     4  2017  4.52
##  6     6  2017 13.7 
##  7     6  2017 15.1 
##  8     6  2017 11.1 
##  9     7  2017  5.75
## 10     8  2017  8.25
## # ℹ 295 more rows

## Predicted values in the testing data
model_fit |>
    extract_fit_parsnip() |>
    augment(test_prep)

## # A tibble: 305 × 4
##    .pred month  year pmFRM
##    <dbl> <dbl> <dbl> <dbl>
##  1  6.99     3  2017  6.22
##  2  6.99     3  2017 11.3 
##  3  6.99     3  2017  8.61
##  4  6.99     3  2017  9.72
##  5 10.3      4  2017  4.52
##  6  9.89     6  2017 13.7 
##  7  9.89     6  2017 15.1 
##  8  9.89     6  2017 11.1 
##  9  8.96     7  2017  5.75
## 10  8.17     8  2017  8.25
## # ℹ 295 more rows
…
