W12-L2-Lecture-Examples
…
## 

## ── Operations

## • Centering and scaling for: Wind, Temp, Solar.R | Trained

## • Natural splines on: Wind | Trained

dat_model <- rec |> 
    prep(airquality) |> 
    bake(new_data = NULL)

dat_model

## # A tibble: 153 × 5
##      Temp Solar.R Ozone Wind_ns_1 Wind_ns_2
##     <dbl>   <dbl> <int>     <dbl>     <dbl>
##  1 -1.15   0.0452    41     0.438  -0.237  
##  2 -0.621 -0.754     36     0.471  -0.244  
##  3 -0.410 -0.410     12     0.579  -0.0918 
##  4 -1.68   1.41      18     0.577  -0.161  
##  5 -2.31  NA         NA     0.558   0.0482 
##  6 -1.26  NA         28     0.545   0.106  
##  7 -1.36   1.26      23     0.501  -0.245  
##  8 -1.99  -0.965     19     0.567   0.00326
##  9 -1.78  -1.85       8     0.350   0.718  
## 10 -0.938  0.0896    NA     0.501  -0.245  
## # ℹ 143 more rows

airquality |> 
  tibble() 

## # A tibble: 153 × 6
##    Ozone Solar.R  Wind  Temp Month   Day
##    <int>   <int> <dbl> <int> <int> <int>
##  1    41     190   7.4    67     5     1
##  2    36     118   8      72     5     2
##  3    12     149  12.6    74     5     3
##  4    18     313  11.5    62     5     4
##  5    NA      NA  14.3    56     5     5
##  6    28      NA  14.9    66     5     6
##  7    23     299   8.6    65     5     7
##  8    19      99  13.8    59     5     8
##  9     8      19  20.1    61     5     9
## 10    NA     194   8.6    69     5    10
## # ℹ 143 more rows

model_fit |> 
    extract_fit_parsnip() |> 
    augment(new_data = dat_model)

## # A tibble: 153 × 7
##    .pred .resid   Temp Solar.R Ozone Wind_ns_1 Wind_ns_2
##    <dbl>  <dbl>  <dbl>   <dbl> <int>     <dbl>     <dbl>
##  1 35.2   5.76  -1.15   0.0452    41     0.438  -0.237  
##  2 33.4   2.56  -0.621 -0.754     36     0.471  -0.244  
##  3 19.9  -7.86  -0.410 -0.410     12     0.579  -0.0918 
##  4 14.6   3.41  -1.68   1.41      18     0.577  -0.161  
##  5 NA    NA     -2.31  NA         NA     0.558   0.0482 
##  6 NA    NA     -1.26  NA         28     0.545   0.106  
##  7 30.5  -7.50  -1.36   1.26      23     0.501  -0.245  
##  8 -4.91 23.9   -1.99  -0.965     19     0.567   0.00326
##  9  8.28 -0.280 -1.78  -1.85       8     0.350   0.718  
## 10 29.8  NA     -0.938  0.0896    NA     0.501  -0.245  
## # ℹ 143 more rows
…
Checking model fit

dat_model <- rec |> 
    prep(airquality) |> 
    bake(new_data = NULL)

model_fit |> 
    extract_fit_parsnip() |> 
    augment(new_data = dat_model)

## # A tibble: 116 × 8
##    .pred_class `.pred_[1,70]` `.pred_(70,168]`   Temp Solar.R Ozone  Wind_ns_1
##    <fct>                <dbl>            <dbl>  <dbl>   <dbl> <fct>      <dbl>
##  1 [1,70]               1.000         2.43e- 6 -1.15   0.0570 [1,70]     0.418
##  2 [1,70]               1.000         2.06e- 5 -0.619 -0.733  [1,70]     0.454
##  3 [1,70]               1.000         1.37e- 5 -0.408 -0.393  [1,70]     0.579
##  4 [1,70]               1.000         2.73e- 8 -1.67   1.41   [1,70]     0.575
##  5 <NA>                NA            NA        -1.25  NA      [1,70]     0.547
##  6 [1,70]               1.000         7.58e- 7 -1.36   1.25   [1,70]     0.487
##  7 [1,70]               1.000         2.77e-10 -1.99  -0.941  [1,70]     0.569
##  8 [1,70]               1.000         2.26e- 9 -1.78  -1.82   [1,70]     0.347
##  9 <NA>                NA            NA        -0.408 NA      [1,70]     0.384
## 10 [1,70]               1.000         3.63e- 6 -0.935  0.781  [1,70]     0.534
## # ℹ 106 more rows
## # ℹ 1 more variable: Wind_ns_2 <dbl>
…
